{
	"info": {
		"_postman_id": "a076e037-80bc-4bad-a62e-8bb69d25f2b4",
		"name": "SpringBootAssignment",
		"schema": "https://schema.getpostman.com/json/collection/v2.1.0/collection.json"
	},
	"item": [
		{
			"name": "Login mod",
			"request": {
				"auth": {
					"type": "noauth"
				},
				"method": "POST",
				"header": [
					{
						"key": "Content-Type",
						"value": "application/json"
					}
				],
				"body": {
					"mode": "raw",
					"raw": "{\"username\":\"mod\",\"password\":\"654321\"}"
				},
				"url": {
					"raw": "http://localhost:8080/account/login",
					"protocol": "http",
					"host": [
						"localhost"
					],
					"port": "8080",
					"path": [
						"account",
						"login"
					]
				}
			},
			"response": []
		},
		{
			"name": "Get admin content",
			"request": {
				"auth": {
					"type": "noauth"
				},
				"method": "GET",
				"header": [
					{
						"key": "Authorization",
						"value": "eyJhbGciOiJIUzI1NiJ9.eyJleHAiOjE1MjgzNjU3MzksInVzZXJuYW1lIjoibW9kIn0.lO5olYUy1syjfn_Qwj1pbB3QIQdK73kPXk51V1h9OV0"
					},
					{
						"key": "Content-Type",
						"value": "application/json"
					}
				],
				"body": {
					"mode": "raw",
					"raw": ""
				},
				"url": {
					"raw": "http://localhost:8080/user/royalpoint/1",
					"protocol": "http",
					"host": [
						"localhost"
					],
					"port": "8080",
					"path": [
						"user",
						"royalpoint",
						"1"
					]
				}
			},
			"response": []
		},
		{
			"name": "Login admin",
			"request": {
				"method": "POST",
				"header": [
					{
						"key": "Content-Type",
						"value": "application/json"
					}
				],
				"body": {
					"mode": "raw",
					"raw": "{\"username\":\"admin\",\"password\":\"123456\"}"
				},
				"url": {
					"raw": "http://localhost:8080/account/login",
					"protocol": "http",
					"host": [
						"localhost"
					],
					"port": "8080",
					"path": [
						"account",
						"login"
					]
				}
			},
			"response": []
		},
		{
			"name": "Get mod content",
			"request": {
				"method": "GET",
				"header": [
					{
						"key": "Authorization",
						"value": "eyJhbGciOiJIUzI1NiJ9.eyJleHAiOjE1MjgzNjc0MDAsInVzZXJuYW1lIjoiYWRtaW4ifQ.WWSSJ-m2tRgLr-8LlXy4IAqGmiALWUYtnxAbsxcMszQ"
					},
					{
						"key": "Content-Type",
						"value": "application/json"
					}
				],
				"body": {
					"mode": "raw",
					"raw": ""
				},
				"url": {
					"raw": "http://localhost:8080/user/startdate/1",
					"protocol": "http",
					"host": [
						"localhost"
					],
					"port": "8080",
					"path": [
						"user",
						"startdate",
						"1"
					]
				}
			},
			"response": []
		},
		{
			"name": "Get public content",
			"request": {
				"method": "GET",
				"header": [],
				"body": {
					"mode": "raw",
					"raw": ""
				},
				"url": {
					"raw": "http://localhost:8080/user/public/1",
					"protocol": "http",
					"host": [
						"localhost"
					],
					"port": "8080",
					"path": [
						"user",
						"public",
						"1"
					]
				}
			},
			"response": []
		}
	]
}